\relax 
\providecommand\HyperFirstAtBeginDocument{\AtBeginDocument}
\HyperFirstAtBeginDocument{\ifx\hyper@anchor\@undefined
\global\let\oldcontentsline\contentsline
\gdef\contentsline#1#2#3#4{\oldcontentsline{#1}{#2}{#3}}
\global\let\oldnewlabel\newlabel
\gdef\newlabel#1#2{\newlabelxx{#1}#2}
\gdef\newlabelxx#1#2#3#4#5#6{\oldnewlabel{#1}{{#2}{#3}}}
\AtEndDocument{\ifx\hyper@anchor\@undefined
\let\contentsline\oldcontentsline
\let\newlabel\oldnewlabel
\fi}
\fi}
\global\let\hyper@last\relax 
\gdef\HyperFirstAtBeginDocument#1{#1}
\providecommand\HyField@AuxAddToFields[1]{}
\providecommand\HyField@AuxAddToCoFields[2]{}
\@writefile{toc}{\contentsline {section}{Exp\IeC {\'e}rience professionnelle}{1}{section*.1}}
\@writefile{toc}{\contentsline {section}{Etudes et formations}{1}{section*.2}}
\@writefile{toc}{\contentsline {section}{Comp\IeC {\'e}tences informatiques}{1}{section*.3}}
\@writefile{toc}{\contentsline {section}{Atouts personnels}{2}{section*.4}}
\@writefile{toc}{\contentsline {section}{Langues}{2}{section*.5}}
\@writefile{toc}{\contentsline {section}{Centres d\IeC {\textquoteright }int\IeC {\'e}r\IeC {\^e}t et loisirs}{2}{section*.6}}
